<?xml version="1.0" encoding="utf-8"?>
<!-- Generator: Adobe Illustrator 22.1.0, SVG Export Plug-In . SVG Version: 6.00 Build 0)  -->
<svg version="1.1" id="Camada_1" xmlns="http://www.w3.org/2000/svg" xmlns:xlink="http://www.w3.org/1999/xlink" x="0px" y="0px"
	 viewBox="0 0 321 218.9" style="enable-background:new 0 0 321 218.9;" xml:space="preserve">
<style type="text/css">
	.st0{fill:#5F904B;}
	.st1{fill:#DFBE3A;}
	.st2{fill:#312B6A;}
	.st3{fill:#FFFFFF;}
	.st4{fill:#AC252B;}
	.st5{fill:#323860;}
	.st6{fill:#6A6A6A;}
</style>
<g>
	<path class="st6" d="M261.5,9.9H25.3H11.1v14.2v136.6c0,26.7,21.7,48.4,48.4,48.4h201.9c26.7,0,48.4-21.7,48.4-48.4V58.3
		C309.9,31.6,288.1,9.9,261.5,9.9L261.5,9.9z"/>
	<g>
		<polygon class="st3" points="41.7,109.1 160.2,34.9 279.3,109.1 160.5,184 		"/>
	</g>
	<circle class="st6" cx="160.5" cy="109.5" r="34.6"/>
</g>
</svg>
